<svg width="120" height="120" viewBox="0 0 120 120" fill="none" xmlns="http://www.w3.org/2000/svg">
<path d="M60.0002 29.7029C54.008 29.7029 48.1504 31.4798 43.168 34.8089C38.1857 38.1379 34.3025 42.8697 32.0094 48.4057C29.7163 53.9418 29.1163 60.0335 30.2853 65.9106C31.4543 71.7876 34.3398 77.186 38.5769 81.4231C42.814 85.6602 48.2125 88.5458 54.0895 89.7148C59.9666 90.8838 66.0583 90.2838 71.5943 87.9907C77.1304 85.6976 81.8621 81.8143 85.1912 76.832C88.5203 71.8497 90.2972 65.9921 90.2972 59.9999C90.2878 51.9675 87.0927 44.2668 81.413 38.5871C75.7332 32.9073 68.0325 29.7123 60.0002 29.7029ZM60.0002 89.1088C54.243 89.1088 48.6151 87.4016 43.8281 84.2031C39.0412 81.0045 35.3102 76.4584 33.107 71.1394C30.9039 65.8204 30.3274 59.9676 31.4506 54.321C32.5738 48.6745 35.3461 43.4878 39.4171 39.4168C43.488 35.3458 48.6747 32.5735 54.3213 31.4503C59.9679 30.3271 65.8207 30.9036 71.1397 33.1068C76.4586 35.31 81.0048 39.0409 84.2033 43.8279C87.4019 48.6148 89.1091 54.2427 89.1091 59.9999C89.0996 67.7172 86.0298 75.1157 80.5728 80.5726C75.1159 86.0295 67.7174 89.0994 60.0002 89.1088Z" fill="white"/>
<path d="M60.0003 23.7622C52.8332 23.7622 45.827 25.8875 39.8678 29.8693C33.9085 33.8512 29.2639 39.5107 26.5211 46.1323C23.7784 52.7538 23.0608 60.04 24.459 67.0694C25.8572 74.0988 29.3085 80.5558 34.3765 85.6237C39.4444 90.6916 45.9013 94.1429 52.9307 95.5411C59.9601 96.9394 67.2463 96.2218 73.8679 93.479C80.4894 90.7363 86.149 86.0916 90.1308 80.1324C94.1126 74.1731 96.2379 67.1669 96.2379 59.9998C96.2285 50.3919 92.4076 41.1802 85.6138 34.3864C78.8199 27.5926 69.6082 23.7716 60.0003 23.7622ZM60.0003 95.0493C53.0682 95.0493 46.2917 92.9937 40.5279 89.1424C34.764 85.2911 30.2716 79.8171 27.6188 73.4127C24.966 67.0082 24.2719 59.9609 25.6243 53.162C26.9767 46.3631 30.3148 40.1178 35.2166 35.2161C40.1184 30.3143 46.3636 26.9762 53.1625 25.6238C59.9614 24.2714 67.0087 24.9655 73.4132 27.6183C79.8176 30.2711 85.2916 34.7635 89.1429 40.5274C92.9942 46.2912 95.0498 53.0677 95.0498 59.9998C95.0404 69.2926 91.3447 78.2021 84.7736 84.7731C78.2026 91.3441 69.2931 95.0399 60.0003 95.0493Z" fill="white"/>
<path d="M60 17.8218C51.6579 17.8218 43.5032 20.2955 36.567 24.9301C29.6309 29.5647 24.2248 36.152 21.0324 43.8591C17.8401 51.5661 17.0048 60.0468 18.6322 68.2285C20.2597 76.4103 24.2768 83.9257 30.1755 89.8245C36.0742 95.7232 43.5897 99.7403 51.7714 101.368C59.9532 102.995 68.4338 102.16 76.1409 98.9676C83.848 95.7752 90.4353 90.3691 95.0699 83.4329C99.7045 76.4968 102.178 68.342 102.178 60C102.166 48.8175 97.7178 38.0966 89.8106 30.1894C81.9034 22.2822 71.1825 17.8344 60 17.8218ZM60 100.99C51.8929 100.99 43.9679 98.586 37.2271 94.082C30.4863 89.5779 25.2325 83.1762 22.1301 75.6862C19.0277 68.1963 18.2159 59.9545 19.7975 52.0032C21.3791 44.0519 25.2831 36.7482 31.0156 31.0156C36.7482 25.283 44.0519 21.3791 52.0032 19.7975C59.9545 18.2159 68.1963 19.0276 75.6862 22.1301C83.1762 25.2325 89.578 30.4863 94.082 37.2271C98.5861 43.9679 100.99 51.8929 100.99 60C100.978 70.8674 96.6549 81.2861 88.9705 88.9705C81.2861 96.6549 70.8674 100.977 60 100.99Z" fill="white"/>
<path d="M60.0002 11.8813C50.4832 11.8813 41.1799 14.7035 33.2668 19.9908C25.3537 25.2782 19.1862 32.7933 15.5442 41.5859C11.9022 50.3784 10.9493 60.0535 12.806 69.3877C14.6626 78.7218 19.2455 87.2957 25.975 94.0253C32.7046 100.755 41.2785 105.338 50.6127 107.194C59.9468 109.051 69.6219 108.098 78.4144 104.456C87.207 100.814 94.7221 94.6466 100.009 86.7335C105.297 78.8204 108.119 69.5172 108.119 60.0001C108.103 47.2431 103.029 35.013 94.0079 25.9924C84.9873 16.9718 72.7572 11.8971 60.0002 11.8813ZM60.0002 106.931C50.7182 106.931 41.6446 104.178 33.9269 99.0216C26.2092 93.8648 20.1939 86.5352 16.6419 77.9597C13.0898 69.3843 12.1604 59.9481 13.9712 50.8444C15.7821 41.7408 20.2518 33.3785 26.8152 26.8151C33.3785 20.2518 41.7408 15.7821 50.8445 13.9712C59.9481 12.1604 69.3843 13.0898 77.9598 16.6419C86.5352 20.1939 93.8648 26.2091 99.0216 33.9269C104.178 41.6446 106.931 50.7181 106.931 60.0001C106.915 72.4421 101.966 84.37 93.1678 93.1678C84.37 101.966 72.4421 106.915 60.0002 106.931Z" fill="white"/>
<path d="M59.9998 5.94067C49.3079 5.94067 38.8561 9.1112 29.9661 15.0513C21.076 20.9914 14.1471 29.4344 10.0555 39.3124C5.96385 49.1905 4.8933 60.06 6.97919 70.5465C9.06508 81.033 14.2137 90.6655 21.7741 98.2258C29.3344 105.786 38.9669 110.935 49.4534 113.021C59.9399 115.107 70.8094 114.036 80.6875 109.944C90.5655 105.853 99.0085 98.9239 104.949 90.0339C110.889 81.1438 114.059 70.692 114.059 60.0001C114.044 45.6675 108.343 31.9264 98.2083 21.7917C88.0736 11.657 74.3325 5.9564 59.9998 5.94067ZM59.9998 112.871C49.5429 112.871 39.3208 109.771 30.6261 103.961C21.9315 98.1514 15.1549 89.894 11.1532 80.233C7.15146 70.5721 6.10443 59.9414 8.14448 49.6854C10.1845 39.4294 15.22 30.0086 22.6142 22.6144C30.0084 15.2203 39.4291 10.1847 49.6852 8.1447C59.9412 6.10465 70.5718 7.15168 80.2328 11.1534C89.8938 15.1551 98.1511 21.9317 103.961 30.6264C109.77 39.321 112.871 49.5431 112.871 60.0001C112.855 74.0176 107.28 87.4565 97.3681 97.3683C87.4562 107.28 74.0174 112.856 59.9998 112.871Z" fill="white"/>
<path d="M60 0C48.1331 0 36.5328 3.51894 26.6658 10.1118C16.7989 16.7047 9.10851 26.0754 4.56725 37.039C0.0259968 48.0026 -1.1622 60.0665 1.15291 71.7054C3.46802 83.3443 9.18247 94.0352 17.5736 102.426C25.9648 110.818 36.6557 116.532 48.2946 118.847C59.9335 121.162 71.9975 119.974 82.961 115.433C93.9246 110.891 103.295 103.201 109.888 93.3342C116.481 83.4672 120 71.8669 120 60C119.984 44.0918 113.658 28.8397 102.409 17.591C91.1603 6.34219 75.9082 0.0157273 60 0V0ZM60 118.812C48.3681 118.812 36.9975 115.363 27.3259 108.9C17.6543 102.438 10.1163 93.2528 5.66493 82.5063C1.2136 71.7599 0.0489303 59.9347 2.3182 48.5264C4.58747 37.118 10.1888 26.6387 18.4137 18.4137C26.6387 10.1887 37.118 4.58744 48.5264 2.31817C59.9348 0.0489032 71.7599 1.21357 82.5063 5.66491C93.2528 10.1162 102.438 17.6543 108.9 27.3259C115.363 36.9974 118.812 48.3681 118.812 60C118.793 75.5921 112.591 90.5401 101.565 101.565C90.5402 112.591 75.5921 118.793 60 118.812Z" fill="white"/>
<path d="M60 35.6436C55.1827 35.6436 50.4737 37.072 46.4683 39.7484C42.4629 42.4247 39.3411 46.2286 37.4976 50.6792C35.6541 55.1297 35.1718 60.027 36.1116 64.7517C37.0514 69.4764 39.3711 73.8163 42.7774 77.2226C46.1837 80.6289 50.5236 82.9486 55.2483 83.8884C59.973 84.8282 64.8702 84.3459 69.3208 82.5024C73.7714 80.6589 77.5753 77.5371 80.2516 73.5317C82.9279 69.5263 84.3564 64.8172 84.3564 60C84.347 53.5432 81.7778 47.3535 77.2122 42.7878C72.6465 38.2221 66.4568 35.653 60 35.6436ZM60 83.1683C55.4177 83.1683 50.9384 81.8095 47.1284 79.2637C43.3184 76.718 40.3488 73.0996 38.5953 68.8661C36.8417 64.6327 36.3829 59.9743 37.2769 55.4801C38.1708 50.9859 40.3774 46.8577 43.6175 43.6175C46.8577 40.3774 50.9859 38.1708 55.4801 37.2768C59.9743 36.3829 64.6327 36.8417 68.8661 38.5953C73.0996 40.3488 76.718 43.3184 79.2637 47.1284C81.8095 50.9384 83.1683 55.4177 83.1683 60C83.1589 66.1417 80.7149 72.0292 76.372 76.372C72.0292 80.7149 66.1417 83.1589 60 83.1683Z" fill="white"/>
<path d="M59.9998 41.5842C56.3575 41.5842 52.797 42.6643 49.7685 44.6879C46.7401 46.7114 44.3797 49.5876 42.9858 52.9526C41.592 56.3177 41.2273 60.0205 41.9378 63.5928C42.6484 67.1651 44.4024 70.4465 46.9779 73.022C49.5534 75.5975 52.8348 77.3515 56.4071 78.062C59.9794 78.7726 63.6822 78.4079 67.0473 77.0141C70.4123 75.6202 73.2885 73.2598 75.312 70.2314C77.3356 67.2029 78.4157 63.6424 78.4157 60.0001C78.4125 55.1168 76.4713 50.4345 73.0183 46.9816C69.5654 43.5286 64.883 41.5874 59.9998 41.5842ZM59.9998 77.2278C56.5925 77.2278 53.2617 76.2174 50.4286 74.3244C47.5955 72.4314 45.3874 69.7408 44.0835 66.5928C42.7796 63.4449 42.4384 59.981 43.1031 56.6391C43.7679 53.2973 45.4087 50.2276 47.818 47.8182C50.2273 45.4089 53.297 43.7681 56.6389 43.1034C59.9807 42.4386 63.4446 42.7798 66.5926 44.0837C69.7405 45.3877 72.4312 47.5958 74.3242 50.4289C76.2172 53.2619 77.2276 56.5927 77.2276 60.0001C77.2244 64.5682 75.4083 68.9483 72.1782 72.1784C68.948 75.4086 64.5679 77.2246 59.9998 77.2278Z" fill="white"/>
<path d="M59.9998 71.881C66.5616 71.881 71.881 66.5616 71.881 59.9998C71.881 53.438 66.5616 48.1187 59.9998 48.1187C53.438 48.1187 48.1187 53.438 48.1187 59.9998C48.1187 66.5616 53.438 71.881 59.9998 71.881Z" fill="white"/>
</svg>
