<svg width="30" height="30" viewBox="0 0 30 30" fill="none" xmlns="http://www.w3.org/2000/svg">
<path fill-rule="evenodd" clip-rule="evenodd" d="M14.2491 30L14.2491 18.8057L10.0043 29.1636L8.61631 28.5948L12.8859 18.1764L4.92481 26.1377L3.86416 25.077L11.8671 17.0739L1.37025 21.3118L0.808695 19.9209L11.1372 15.7509H0V14.2509H11.1986L0.836447 10.0042L1.40524 8.61621L11.8233 12.8859L3.86221 4.92491L4.92288 3.86426L12.9263 11.8675L8.68822 1.37025L10.0791 0.808695L14.2491 11.1372L14.2491 0H15.7491V11.1899L19.9925 0.835407L21.3805 1.40422L17.1058 11.8351L25.0771 3.86354L26.1377 4.92422L18.1375 12.9247L28.627 8.68968L29.1886 10.0806L18.8592 14.2509H30V15.7509H18.8141L29.1644 19.9928L28.5957 21.3808L18.1647 17.1058L26.1363 25.0773L25.0756 26.1379L17.0755 18.138L21.3103 28.627L19.9194 29.1886L15.7491 18.8592V30H14.2491Z" fill="#1D1D1D"/>
</svg>
